<?xml version="1.0" encoding="utf-8"?>
<!-- Generator: Adobe Illustrator 19.1.0, SVG Export Plug-In . SVG Version: 6.00 Build 0)  -->
<!DOCTYPE svg PUBLIC "-//W3C//DTD SVG 1.1//EN" "http://www.w3.org/Graphics/SVG/1.1/DTD/svg11.dtd">
<svg version="1.1" id="Layer_1" xmlns="http://www.w3.org/2000/svg" xmlns:xlink="http://www.w3.org/1999/xlink" x="0px" y="0px"
	 width="553.1px" height="140.3px" viewBox="92 204.6 553.1 140.3" style="enable-background:new 92 204.6 553.1 140.3;"
	 xml:space="preserve" fill="#999" >
<g>
	<g>
		<path d="M327.8,274c0,12.6-5.5,22.8-18.2,22.8s-18.2-10.2-18.2-22.8v-43h-23.2v43c0,24.9,16.1,45,41.3,45
			c25.1,0,41.5-20.1,41.5-45v-43.1h-23.2V274z"/>
	</g>
	<g>
		<rect x="560.6" y="204.7" width="23.1" height="112.1"/>
	</g>
	<g>
		<polygon points="600.8,208.8 607.4,208.8 607.4,226.5 612.3,226.5 612.3,208.8 618.9,208.8 618.9,204.8 600.8,204.8 		"/>
	</g>
	<g>
		<polygon points="638.3,204.8 633.4,219.7 633.3,219.7 628.2,204.8 621.4,204.8 621.4,226.5 625.9,226.5 625.9,211.3 626,211.3 
			631.3,226.5 635.1,226.5 640.5,211.1 640.5,211.1 640.5,226.5 645.1,226.5 645.1,204.8 		"/>
	</g>
	<g>
		<path d="M216.3,246.1c-0.3,0.5-0.3,0.8-1.2,0.8c-0.7,0-0.8-0.8-0.8-0.8l-2.5-15h-20.6v85.6h23.2v-46.4c0-3.8,10.3-21.9,30.3-17.3
			c10.1,2.4,14.4,6.6,14.4,6.6s0-16.5,0-26.1c-3.7-1.9-6.3-2.9-9.7-3.6C229.4,225.4,216.9,245,216.3,246.1z"/>
	</g>
	<g>
		<path d="M405,229.3c-25.3,0-45.8,20.3-45.8,45.3c0,0,0,62,0,70.3h23.3v-30.8v-11.5c0,0,0-0.9,0.9-0.9c0.7,0,0.9,0.5,1.1,0.9
			c1.8,4.3,11.5,20.9,32.9,15.7c19.2-5.4,33.3-22.9,33.3-43.6C450.8,249.6,430.3,229.3,405,229.3z M405.1,297.5
			c-12.8,0-23.2-10.3-23.2-22.9c0-12.7,10.4-22.9,23.2-22.9c12.8,0,23.2,10.3,23.2,22.9C428.2,287.3,417.9,297.5,405.1,297.5z"/>
	</g>
	<g>
		<path d="M505.4,229.3c-25.3,0-45.8,20.3-45.8,45.3c0,20.8,14.1,38.3,33.4,43.6c21.5,5.2,31.2-11.3,32.9-15.7
			c0.2-0.4,0.4-0.9,1.1-0.9c0.8,0,0.9,0.9,0.9,0.9v14.2h23.3v-42.1C551.2,249.6,530.7,229.3,505.4,229.3z M505.4,297.5
			c-12.8,0-23.2-10.3-23.2-22.9c0-12.7,10.4-22.9,23.2-22.9c12.8,0,23.2,10.3,23.2,22.9C528.6,287.3,518.2,297.5,505.4,297.5z"/>
	</g>
	<g>
		<path d="M120.3,204.6H92v112h26.4c34.7,0,62.3-6.7,62.3-56C180.7,210.8,154.7,204.6,120.3,204.6z M125,297.4l-9.6-0.2V224h9.3
			c21.4,0,32.6,3,32.6,36.6C157.3,295.6,144.6,297.4,125,297.4z"/>
	</g>
</g>
</svg>
