<?xml version="1.0" encoding="utf-8"?>
<!-- Generator: Adobe Illustrator 19.0.1, SVG Export Plug-In . SVG Version: 6.00 Build 0)  -->
<!DOCTYPE svg PUBLIC "-//W3C//DTD SVG 1.1//EN" "http://www.w3.org/Graphics/SVG/1.1/DTD/svg11.dtd">
<svg version="1.1" id="Layer_1" xmlns="http://www.w3.org/2000/svg" xmlns:xlink="http://www.w3.org/1999/xlink" x="0px" y="0px"
	 width="81.3px" height="92.8px" viewBox="0 0 81.3 92.8" enable-background="new 0 0 81.3 92.8" xml:space="preserve">
<g>
	<path fill="none" stroke="#000000" stroke-miterlimit="10" d="M45,92.3c-2.6,0-5.2,0-7.9,0c-2.3-0.5-4.5-0.9-6.8-1.5
		C14.6,87,2.1,72.8,0.7,56.7c-1.3-15.4,4.6-27.6,17.1-36.5c3.5-2.5,7.4-4.4,11.1-6.4c4.3-2.3,7-5.8,7.9-10.7
		c0.1-0.7,0.4-1.3,0.6-2.2c0.5,0.5,0.9,0.7,1.1,1.1c4.7,6.4,11,10.4,18.2,13.7C73.2,23.4,83.2,40,80.4,59.5
		c-2.2,15-10.9,25.1-25,30.3C52,91,48.4,91.5,45,92.3z M77.7,59.1c-0.1-0.7-0.2-2.1-0.6-3.4c-1.2-3.4-4.1-4.7-7.4-3.2
		c-1,0.5-2,1.1-3,1.6c-3,1.9-6,3.8-9.1,5.6c-1.8,1.1-3.8,1-5.6-0.1c-2-1.3-3.9-2.7-6-3.8c-3.1-1.7-6.2-3.6-9.5-4.7
		c-7.4-2.5-15.9,2.1-18.3,9.5c-2.2,6.9,1.6,12.8,8.8,13.6c3.9,0.5,7.6-0.3,11.1-2.1c4.6-2.4,9.1-4.9,13.6-7.5c2.8-1.6,5.2-1,7.5,1.1
		c2.1,2,4.2,4,6.3,6c3.3,3.1,5.7,2.9,8.5-0.7C76.3,67.7,77.3,63.9,77.7,59.1z"/>
</g>
</svg>
