<?xml version="1.0" encoding="UTF-8" standalone="no"?>
<svg width="20px" height="19px" viewBox="0 0 20 19" version="1.1" xmlns="http://www.w3.org/2000/svg" xmlns:xlink="http://www.w3.org/1999/xlink" xmlns:sketch="http://www.bohemiancoding.com/sketch/ns">
    <!-- Generator: Sketch 3.4 (15575) - http://www.bohemiancoding.com/sketch -->
    <title>Shape</title>
    <desc>Created with Sketch.</desc>
    <defs></defs>
    <g id="Page-1" stroke="none" stroke-width="1" fill="none" fill-rule="evenodd" sketch:type="MSPage">
        <path d="M19.8981718,0.0741935626 C19.8091435,-0.00389304598 19.6824471,-0.0220096175 19.5750631,0.0277960065 L0.17299225,9.04255416 C0.068537958,9.09110418 0.0012734598,9.19531931 1.7855837e-05,9.31047614 C-0.00123774813,9.42563296 0.0638144955,9.53128306 0.167252346,9.58204534 L5.65800849,12.276691 C5.75869597,12.3261379 5.87875563,12.3149571 5.96868079,12.2477523 L11.3072099,8.2576821 L7.11624303,12.5685891 C7.05645236,12.6301137 7.02595912,12.7143587 7.03253609,12.7998594 L7.44981515,18.2341731 C7.4590827,18.3545915 7.5398001,18.457551 7.65453838,18.4952789 C7.68521099,18.5053238 7.71672067,18.5102266 7.74787161,18.5102266 C7.83331247,18.5102266 7.9164215,18.4735749 7.97423907,18.4066094 L10.8885557,15.029513 L14.4912422,16.7508863 C14.5694484,16.7882555 14.6599715,16.78981 14.7394332,16.755251 C14.818895,16.7206322 14.8794032,16.6533079 14.9053523,16.5706772 L19.9862435,0.388513089 C20.0217591,0.275508732 19.9871403,0.152280171 19.8981718,0.0741935626 L19.8981718,0.0741935626 Z" id="Shape" fill="#414042" sketch:type="MSShapeGroup"></path>
    </g>
</svg>