<?xml version="1.0" encoding="utf-8"?>
<!-- Generator: Adobe Illustrator 19.1.0, SVG Export Plug-In . SVG Version: 6.00 Build 0)  -->
<!DOCTYPE svg PUBLIC "-//W3C//DTD SVG 1.1//EN" "http://www.w3.org/Graphics/SVG/1.1/DTD/svg11.dtd">
<svg version="1.1" id="Layer_1" xmlns="http://www.w3.org/2000/svg" xmlns:xlink="http://www.w3.org/1999/xlink" x="0px" y="0px"
	 width="40px" height="51px" viewBox="0 0 40 51" style="enable-background:new 0 0 40 51;" xml:space="preserve">
<style type="text/css">
	.st0{clip-path:url(#SVGID_2_);fill:#BC2026;}
	.st1{clip-path:url(#SVGID_4_);fill:#FFFFFF;}
	.st2{clip-path:url(#SVGID_6_);fill:#BC2026;}
	.st3{clip-path:url(#SVGID_8_);fill:#BC2026;}
</style>
<g>
	<defs>
		<rect id="SVGID_1_" x="17" y="9" width="6" height="6"/>
	</defs>
	<clipPath id="SVGID_2_">
		<use xlink:href="#SVGID_1_"  style="overflow:visible;"/>
	</clipPath>
	<rect x="12" y="4" class="st0" width="16" height="16"/>
</g>
<g>
	<defs>
		<rect id="SVGID_3_" x="17" y="18" width="6" height="23"/>
	</defs>
	<clipPath id="SVGID_4_">
		<use xlink:href="#SVGID_3_"  style="overflow:visible;"/>
	</clipPath>
	<rect x="12" y="13" class="st1" width="16" height="33"/>
</g>
<g>
	<defs>
		<path id="SVGID_5_" d="M17,44.8H9.4c-1.7,0-3.2-1.4-3.2-3.2V9.4c0-1.7,1.4-3.2,3.2-3.2H17V0H9.4H6.9C3.1,0,0,3.1,0,7v2.4v32.2V44
			c0,3.8,3.1,7,6.9,7h2.4H17L17,44.8L17,44.8z"/>
	</defs>
	<clipPath id="SVGID_6_">
		<use xlink:href="#SVGID_5_"  style="overflow:visible;"/>
	</clipPath>
	<rect x="-5" y="-5" class="st2" width="27" height="61"/>
</g>
<g>
	<defs>
		<path id="SVGID_7_" d="M23,44.8h7.6c1.7,0,3.2-1.4,3.2-3.2V9.4c0-1.7-1.4-3.2-3.2-3.2H23V0h7.6h2.4C36.9,0,40,3.1,40,7v2.4v32.2
			V44c0,3.8-3.1,7-6.9,7h-2.4H23V44.8z"/>
	</defs>
	<clipPath id="SVGID_8_">
		<use xlink:href="#SVGID_7_"  style="overflow:visible;"/>
	</clipPath>
	<rect x="18" y="-5" class="st3" width="27" height="61"/>
</g>
</svg>
