<?xml version="1.0" encoding="utf-8"?><!--Generator: Adobe Illustrator 19.0.1, SVG Export Plug-In . SVG Version: 6.00 Build 0)--><!DOCTYPE svg PUBLIC "-//W3C//DTD SVG 1.1//EN" "http://www.w3.org/Graphics/SVG/1.1/DTD/svg11.dtd"><svg version="1.1" id="Layer_1" xmlns="http://www.w3.org/2000/svg" xmlns:xlink="http://www.w3.org/1999/xlink" x="0px" y="0px" width="50px" height="50px" viewBox="0 0 50 50" enable-background="new 0 0 50 50" xml:space="preserve"><rect x="0" fill="#DC482E" width="50" height="50"/><path fill="#FFFFFF" d="M16.3,44c-6.6,0-12.1-2.7-12.1-6.9c0-4.3,5.1-8.5,11.6-8.5l2.1,0c-0.9-0.9-1.6-1.9-1.6-3.3
	c0-0.8,0.3-1.5,0.6-2.2l-1.1,0c-5.4,0-9-3.8-9-8.6C6.7,10,11.7,6,17,6h11.8l-2.7,1.9h-3.8c2.5,1,3.8,3.8,3.8,6.8
	c0,2.5-1.4,4.6-3.3,6.2c-1.9,1.5-2.3,2.1-2.3,3.4c0,1.1,2,2.9,3.1,3.7c3.1,2.2,4.1,4.2,4.1,7.7C27.9,39.8,23.8,44,16.3,44z
	 M46.8,20.5h-7.4v7.4h-3.7v-7.4h-7.4v-3.8h7.4V9.4h3.7v7.4h7.4V20.5z M22,14.9c-0.5-4-3.4-7.2-6.5-7.3c-3-0.1-5.1,3-4.6,7
	c0.5,4,3.4,7.3,6.5,7.4C20.5,22.1,22.5,18.9,22,14.9z M20,30.2c-0.9-0.3-1.9-0.5-2.9-0.5c-4.5,0-8.6,2.8-8.6,6.1
	c0,3.4,3.3,6.3,7.8,6.3c6.4,0,8.6-2.7,8.6-6.1c0-0.4-0.1-0.8-0.1-1.2C24.2,32.9,22.5,31.9,20,30.2z"/></svg>