<?xml version="1.0" encoding="UTF-8" standalone="no"?>
<svg width="92px" height="92px" viewBox="0 0 92 92" version="1.1" xmlns="http://www.w3.org/2000/svg" xmlns:xlink="http://www.w3.org/1999/xlink" xmlns:sketch="http://www.bohemiancoding.com/sketch/ns">
    <!-- Generator: Sketch 3.3.3 (12072) - http://www.bohemiancoding.com/sketch -->
    <title>Imported Layers</title>
    <desc>Created with Sketch.</desc>
    <defs></defs>
    <g id="Page-1" stroke="none" stroke-width="1" fill="none" fill-rule="evenodd" sketch:type="MSPage">
        <g id="Imported-Layers" sketch:type="MSLayerGroup" transform="translate(1.000000, 1.000000)">
            <path d="M89.5807647,44.9526471 C89.5807647,69.61 69.5910588,89.5997059 44.9337059,89.5997059 C20.275,89.5997059 0.286647059,69.61 0.286647059,44.9526471 C0.286647059,20.2952941 20.275,0.305588235 44.9337059,0.305588235 C69.5910588,0.305588235 89.5807647,20.2952941 89.5807647,44.9526471 L89.5807647,44.9526471 Z" id="Stroke-1" stroke="#414042" stroke-width="1.2" sketch:type="MSShapeGroup"></path>
            <text id="24" stroke="#FFFFFF" sketch:type="MSTextLayer" font-family="DIN Pro" font-size="25.3830001" font-weight="normal" fill="#414042">
                <tspan x="45.9168882" y="37.7303341">24</tspan>
            </text>
            <path d="M58.3278235,61.4869412 C55.7247647,57.8583529 52.0799412,55.9642353 50.2277647,57.2752353 C48.3769412,58.5862353 44.8281765,56.6258235 42.3428235,52.9160588 L39.2770588,48.3431176 C36.7917059,44.6333529 36.2735294,40.5258235 38.1243529,39.2148235 C39.9765294,37.9038235 39.457,33.7962941 36.9716471,30.0865294 L36.5698235,29.4871765 C34.0831176,25.7787647 29.337,24.461 26.0209412,26.5594118 C22.7035294,28.6578235 20.0436471,31.2202941 20.1072353,32.2525882 C20.1721765,33.2848824 20.1978824,34.1480588 20.1667647,34.1683529 C20.1342941,34.19 21.5332353,37.571 23.2731176,41.6825882 C23.2731176,41.6825882 26.7122941,49.8029412 31.3407059,56.7110588 C35.9704706,63.6178235 42.4754118,70.2580588 42.4754118,70.2580588 C45.5993529,73.4482941 48.1821176,76.0405294 48.2132353,76.0188824 C48.2443529,75.9972353 48.9194706,76.0824706 49.7109412,76.2069412 C50.5037647,76.3314118 53.9131765,74.6672941 57.2887647,72.5107059 C60.663,70.3541176 61.2948235,65.6215294 58.6917647,61.9942941 L58.3278235,61.4869412 L58.3278235,61.4869412 Z" id="Stroke-2" stroke="#414042" stroke-width="1.2" sketch:type="MSShapeGroup"></path>
        </g>
    </g>
</svg>