<?xml version="1.0" encoding="utf-8"?>
<!-- Generator: Adobe Illustrator 19.1.0, SVG Export Plug-In . SVG Version: 6.00 Build 0)  -->
<!DOCTYPE svg PUBLIC "-//W3C//DTD SVG 1.1//EN" "http://www.w3.org/Graphics/SVG/1.1/DTD/svg11.dtd">
<svg version="1.1" id="Layer_1" xmlns="http://www.w3.org/2000/svg" xmlns:xlink="http://www.w3.org/1999/xlink" x="0px" y="0px"
	 width="55.8px" height="106.5px" viewBox="0 0 55.8 106.5" style="enable-background:new 0 0 55.8 106.5;" xml:space="preserve">
<style type="text/css">
	.st0{fill:none;stroke:#424143;stroke-miterlimit:10;}
</style>
<path class="st0" d="M52,106H3.8c-1.8,0-3.3-1.5-3.3-3.3V3.8C0.5,2,2,0.5,3.8,0.5H52c1.8,0,3.3,1.5,3.3,3.3v98.9
	C55.3,104.5,53.9,106,52,106z"/>
<line class="st0" x1="0.3" y1="13.3" x2="55.2" y2="13.3"/>
<line class="st0" x1="0.3" y1="92.1" x2="55.2" y2="92.1"/>
<circle class="st0" cx="28" cy="99.6" r="3.1"/>
</svg>
