<?xml version="1.0" encoding="UTF-8" standalone="no"?>
<svg width="50px" height="123px" viewBox="0 0 50 123" version="1.1" xmlns="http://www.w3.org/2000/svg" xmlns:xlink="http://www.w3.org/1999/xlink" xmlns:sketch="http://www.bohemiancoding.com/sketch/ns">
    <!-- Generator: Sketch 3.4 (15575) - http://www.bohemiancoding.com/sketch -->
    <title>meter2 + meter3 + meter</title>
    <desc>Created with Sketch.</desc>
    <defs></defs>
    <g id="homepage" stroke="none" stroke-width="1" fill="none" fill-rule="evenodd" sketch:type="MSPage">
        <g id="Medium-Device-Desktops" sketch:type="MSArtboardGroup" transform="translate(-753.000000, -734.000000)" stroke-width="2" stroke="#4A4A4A" fill="#FFFFFF">
            <g id="meter2-+-meter3-+-meter" sketch:type="MSLayerGroup" transform="translate(754.000000, 735.000000)">
                <g id="pointer" sketch:type="MSShapeGroup">
                    <rect id="Path" x="15.7090909" y="0" width="15.7090909" height="99.2374101" rx="11"></rect>
                    <ellipse id="Oval-1" cx="24" cy="97.0611511" rx="24" ry="23.9388489"></ellipse>
                </g>
            </g>
        </g>
    </g>
</svg>